SD/elevador3/simulation/qsim/elevador.msim.vcd
$comment
	File created using the following command:
		vcd file elevador.msim.vcd -direction
$end
$date
	Thu Nov 21 13:47:13 2024
$end
$version
	ModelSim Version 10.5b
$end
$timescale
	1ps
$end

$scope module elevador_vhd_vec_tst $end
$var wire 1 ! atual [3] $end
$var wire 1 " atual [2] $end
$var wire 1 # atual [1] $end
$var wire 1 $ atual [0] $end
$var wire 1 % clk $end
$var wire 1 & movimento [1] $end
$var wire 1 ' movimento [0] $end
$var wire 1 ( novo [3] $end
$var wire 1 ) novo [2] $end
$var wire 1 * novo [1] $end
$var wire 1 + novo [0] $end
$var wire 1 , reset $end

$scope module i1 $end
$var wire 1 - gnd $end
$var wire 1 . vcc $end
$var wire 1 / unknown $end
$var wire 1 0 devoe $end
$var wire 1 1 devclrn $end
$var wire 1 2 devpor $end
$var wire 1 3 ww_devoe $end
$var wire 1 4 ww_devclrn $end
$var wire 1 5 ww_devpor $end
$var wire 1 6 ww_clk $end
$var wire 1 7 ww_reset $end
$var wire 1 8 ww_novo [3] $end
$var wire 1 9 ww_novo [2] $end
$var wire 1 : ww_novo [1] $end
$var wire 1 ; ww_novo [0] $end
$var wire 1 < ww_atual [3] $end
$var wire 1 = ww_atual [2] $end
$var wire 1 > ww_atual [1] $end
$var wire 1 ? ww_atual [0] $end
$var wire 1 @ ww_movimento [1] $end
$var wire 1 A ww_movimento [0] $end
$var wire 1 B \reset~inputclkctrl_INCLK_bus\ [3] $end
$var wire 1 C \reset~inputclkctrl_INCLK_bus\ [2] $end
$var wire 1 D \reset~inputclkctrl_INCLK_bus\ [1] $end
$var wire 1 E \reset~inputclkctrl_INCLK_bus\ [0] $end
$var wire 1 F \clk~inputclkctrl_INCLK_bus\ [3] $end
$var wire 1 G \clk~inputclkctrl_INCLK_bus\ [2] $end
$var wire 1 H \clk~inputclkctrl_INCLK_bus\ [1] $end
$var wire 1 I \clk~inputclkctrl_INCLK_bus\ [0] $end
$var wire 1 J \atual[0]~output_o\ $end
$var wire 1 K \atual[1]~output_o\ $end
$var wire 1 L \atual[2]~output_o\ $end
$var wire 1 M \atual[3]~output_o\ $end
$var wire 1 N \movimento[0]~output_o\ $end
$var wire 1 O \movimento[1]~output_o\ $end
$var wire 1 P \clk~input_o\ $end
$var wire 1 Q \clk~inputclkctrl_outclk\ $end
$var wire 1 R \novo[0]~input_o\ $end
$var wire 1 S \novo[3]~input_o\ $end
$var wire 1 T \novo[2]~input_o\ $end
$var wire 1 U \andar[1]~5_cout\ $end
$var wire 1 V \andar[1]~6_combout\ $end
$var wire 1 W \reset~input_o\ $end
$var wire 1 X \reset~inputclkctrl_outclk\ $end
$var wire 1 Y \andar[1]~7\ $end
$var wire 1 Z \andar[2]~8_combout\ $end
$var wire 1 [ \LessThan0~2_combout\ $end
$var wire 1 \ \novo[1]~input_o\ $end
$var wire 1 ] \LessThan0~0_combout\ $end
$var wire 1 ^ \LessThan0~1_combout\ $end
$var wire 1 _ \estado_novo~10_combout\ $end
$var wire 1 ` \estado_novo~11_combout\ $end
$var wire 1 a \Equal0~0_combout\ $end
$var wire 1 b \estado_novo~12_combout\ $end
$var wire 1 c \estado_novo~13_combout\ $end
$var wire 1 d \estado_novo~14_combout\ $end
$var wire 1 e \estado_novo.subindo~q\ $end
$var wire 1 f \estado_atual.subindo~feeder_combout\ $end
$var wire 1 g \estado_atual.subindo~q\ $end
$var wire 1 h \andar[2]~9\ $end
$var wire 1 i \andar[3]~10_combout\ $end
$var wire 1 j \Equal0~1_combout\ $end
$var wire 1 k \Equal0~2_combout\ $end
$var wire 1 l \estado_novo.parado~q\ $end
$var wire 1 m \estado_atual.parado~feeder_combout\ $end
$var wire 1 n \estado_atual.parado~q\ $end
$var wire 1 o \andar[0]~3_combout\ $end
$var wire 1 p \movimento[0]~reg0_q\ $end
$var wire 1 q \movimento~0_combout\ $end
$var wire 1 r \movimento[1]~reg0_q\ $end
$var wire 1 s andar [3] $end
$var wire 1 t andar [2] $end
$var wire 1 u andar [1] $end
$var wire 1 v andar [0] $end
$var wire 1 w \ALT_INV_reset~inputclkctrl_outclk\ $end
$upscope $end
$upscope $end
$enddefinitions $end
#0
$dumpvars
0%
1,
0-
1.
x/
10
11
12
13
14
15
06
17
0J
0K
0L
0M
0N
0O
0P
0Q
0R
0S
0T
0U
1V
1W
1X
1Y
1Z
0[
0\
0]
1^
0_
0`
1a
0b
1c
0d
0e
0f
0g
0h
1i
1j
0k
0l
0m
0n
0o
0p
0q
0r
0w
0(
0)
0*
0+
0!
0"
0#
0$
0&
0'
08
09
0:
0;
0<
0=
0>
0?
0@
0A
0s
0t
0u
0v
1F
1G
1H
0I
1B
1C
1D
1E
$end
#500000
1%
16
1P
1I
1Q
#1000000
0%
0,
1+
06
07
1;
1R
0W
0P
0E
0I
1b
0j
1k
0Q
0X
1_
1w
1d
#1500000
1%
16
1P
1I
1Q
1e
1l
1p
1m
1f
1N
1A
1'
#2000000
0%
0+
06
0;
0R
0P
0I
0b
1j
0k
0c
0Q
0_
1c
0d
#2500000
1%
16
1P
1I
1Q
0e
1g
0l
1n
0p
1o
0m
0V
0Z
0i
0f
0N
0A
0'
#3000000
0%
06
0P
0I
0Q
#3500000
1%
16
1P
1I
1Q
0g
0n
1v
1U
1]
0j
1V
1Z
1i
1k
0V
0Y
1J
0Z
1h
1q
1?
1$
0i
